<svg xmlns="http://www.w3.org/2000/svg" width="1440" height="457" viewBox="0 0 1440 457">
    <g fill="none" fill-rule="evenodd">
        <g fill="#F8F9FB">
            <path d="M-2 1114L1442 1114 1442 1570.085 -2 1500.318z" transform="translate(0 -1114) matrix(1 0 0 -1 0 2684.085)"/>
        </g>
    </g>
</svg>
